…
> ### Name: across
> ### Title: Apply a function (or functions) across multiple columns
> ### Aliases: across if_any if_all
> 
> ### ** Examples
> 
> # For better printing
> iris <- as_tibble(iris)
> 
> # across() -----------------------------------------------------------------
> # Different ways to select the same set of columns
> # See <https://tidyselect.r-lib.org/articles/syntax.html> for details
> iris %>%
+   mutate(across(c(Sepal.Length, Sepal.Width), round))
# A tibble: 150 × 5
   Sepal.Length Sepal.Width Petal.Length Petal.Width Species
          <dbl>       <dbl>        <dbl>       <dbl> <fct>  
 1            5           4          1.4         0.2 setosa 
 2            5           3          1.4         0.2 setosa 
 3            5           3          1.3         0.2 setosa 
 4            5           3          1.5         0.2 setosa 
 5            5           4          1.4         0.2 setosa 
 6            5           4          1.7         0.4 setosa 
 7            5           3          1.4         0.3 setosa 
 8            5           3          1.5         0.2 setosa 
 9            4           3          1.4         0.2 setosa 
10            5           3          1.5         0.1 setosa 
# ℹ 140 more rows
> iris %>%
+   mutate(across(c(1, 2), round))
# A tibble: 150 × 5
   Sepal.Length Sepal.Width Petal.Length Petal.Width Species
          <dbl>       <dbl>        <dbl>       <dbl> <fct>  
 1            5           4          1.4         0.2 setosa 
 2            5           3          1.4         0.2 setosa 
 3            5           3          1.3         0.2 setosa 
 4            5           3          1.5         0.2 setosa 
 5            5           4          1.4         0.2 setosa 
 6            5           4          1.7         0.4 setosa 
 7            5           3          1.4         0.3 setosa 
 8            5           3          1.5         0.2 setosa 
 9            4           3          1.4         0.2 setosa 
10            5           3          1.5         0.1 setosa 
# ℹ 140 more rows
> iris %>%
+   mutate(across(1:Sepal.Width, round))
# A tibble: 150 × 5
   Sepal.Length Sepal.Width Petal.Length Petal.Width Species
          <dbl>       <dbl>        <dbl>       <dbl> <fct>  
 1            5           4          1.4         0.2 setosa 
 2            5           3          1.4         0.2 setosa 
 3            5           3          1.3         0.2 setosa 
 4            5           3          1.5         0.2 setosa 
 5            5           4          1.4         0.2 setosa 
 6            5           4          1.7         0.4 setosa 
 7            5           3          1.4         0.3 setosa 
 8            5           3          1.5         0.2 setosa 
 9            4           3          1.4         0.2 setosa 
10            5           3          1.5         0.1 setosa 
# ℹ 140 more rows
> iris %>%
+   mutate(across(where(is.double) & !c(Petal.Length, Petal.Width), round))
# A tibble: 150 × 5
   Sepal.Length Sepal.Width Petal.Length Petal.Width Species
          <dbl>       <dbl>        <dbl>       <dbl> <fct>  
 1            5           4          1.4         0.2 setosa 
 2            5           3          1.4         0.2 setosa 
 3            5           3          1.3         0.2 setosa 
 4            5           3          1.5         0.2 setosa 
 5            5           4          1.4         0.2 setosa 
 6            5           4          1.7         0.4 setosa 
 7            5           3          1.4         0.3 setosa 
 8            5           3          1.5         0.2 setosa 
 9            4           3          1.4         0.2 setosa 
10            5           3          1.5         0.1 setosa 
# ℹ 140 more rows
> 
> # Using an external vector of names
> cols <- c("Sepal.Length", "Petal.Width")
> iris %>%
+   mutate(across(all_of(cols), round))
# A tibble: 150 × 5
   Sepal.Length Sepal.Width Petal.Length Petal.Width Species
          <dbl>       <dbl>        <dbl>       <dbl> <fct>  
 1            5         3.5          1.4           0 setosa 
 2            5         3            1.4           0 setosa 
 3            5         3.2          1.3           0 setosa 
 4            5         3.1          1.5           0 setosa 
 5            5         3.6          1.4           0 setosa 
 6            5         3.9          1.7           0 setosa 
 7            5         3.4          1.4           0 setosa 
 8            5         3.4          1.5           0 setosa 
 9            4         2.9          1.4           0 setosa 
10            5         3.1          1.5           0 setosa 
# ℹ 140 more rows
> 
> # If the external vector is named, the output columns will be named according
> # to those names
> names(cols) <- tolower(cols)
> iris %>%
+   mutate(across(all_of(cols), round))
# A tibble: 150 × 7
   Sepal.Length Sepal.Width Petal.Length Petal.Width Species sepal.length
          <dbl>       <dbl>        <dbl>       <dbl> <fct>          <dbl>
 1          5.1         3.5          1.4         0.2 setosa             5
 2          4.9         3            1.4         0.2 setosa             5
 3          4.7         3.2          1.3         0.2 setosa             5
 4          4.6         3.1          1.5         0.2 setosa             5
 5          5           3.6          1.4         0.2 setosa             5
 6          5.4         3.9          1.7         0.4 setosa             5
 7          4.6         3.4          1.4         0.3 setosa             5
 8          5           3.4          1.5         0.2 setosa             5
 9          4.4         2.9          1.4         0.2 setosa             4
10          4.9         3.1          1.5         0.1 setosa             5
# ℹ 140 more rows
# ℹ 1 more variable: petal.width <dbl>
…
2                  0.5                 5.8                 0.5 
3                  0.75                6.4                 0.75
# ℹ 1 more variable: Sepal.Width.value <dbl>
> 
> # This is also useful inside mutate(), for example, with a multi-lag helper
> multilag <- function(x, lags = 1:3) {
+   names(lags) <- as.character(lags)
+   purrr::map_dfr(lags, lag, x = x)
+ }
> 
> iris %>%
+   group_by(Species) %>%
+   mutate(across(starts_with("Sepal"), multilag, .unpack = TRUE)) %>%
+   select(Species, starts_with("Sepal"))
# A tibble: 150 × 9
# Groups:   Species [3]
   Species Sepal.Length Sepal.Width Sepal.Length_1 Sepal.Length_2 Sepal.Length_3
   <fct>          <dbl>       <dbl>          <dbl>          <dbl>          <dbl>
 1 setosa           5.1         3.5           NA             NA             NA  
 2 setosa           4.9         3              5.1           NA             NA  
 3 setosa           4.7         3.2            4.9            5.1           NA  
 4 setosa           4.6         3.1            4.7            4.9            5.1
 5 setosa           5           3.6            4.6            4.7            4.9
 6 setosa           5.4         3.9            5              4.6            4.7
 7 setosa           4.6         3.4            5.4            5              4.6
 8 setosa           5           3.4            4.6            5.4            5  
 9 setosa           4.4         2.9            5              4.6            5.4
10 setosa           4.9         3.1            4.4            5              4.6
# ℹ 140 more rows
# ℹ 3 more variables: Sepal.Width_1 <dbl>, Sepal.Width_2 <dbl>,
#   Sepal.Width_3 <dbl>
> 
> # if_any() and if_all() ----------------------------------------------------
> iris %>%
+   filter(if_any(ends_with("Width"), ~ . > 4))
# A tibble: 3 × 5
  Sepal.Length Sepal.Width Petal.Length Petal.Width Species
         <dbl>       <dbl>        <dbl>       <dbl> <fct>  
1          5.7         4.4          1.5         0.4 setosa 
2          5.2         4.1          1.5         0.1 setosa 
3          5.5         4.2          1.4         0.2 setosa 
> iris %>%
+   filter(if_all(ends_with("Width"), ~ . > 2))
# A tibble: 23 × 5
   Sepal.Length Sepal.Width Petal.Length Petal.Width Species  
          <dbl>       <dbl>        <dbl>       <dbl> <fct>    
 1          6.3         3.3          6           2.5 virginica
 2          7.1         3            5.9         2.1 virginica
 3          6.5         3            5.8         2.2 virginica
 4          7.6         3            6.6         2.1 virginica
 5          7.2         3.6          6.1         2.5 virginica
 6          6.8         3            5.5         2.1 virginica
 7          5.8         2.8          5.1         2.4 virginica
 8          6.4         3.2          5.3         2.3 virginica
 9          7.7         3.8          6.7         2.2 virginica
10          7.7         2.6          6.9         2.3 virginica
# ℹ 13 more rows
…
Merc 230            22.8   4 140.8  95 3.92 3.150 22.90  1  0    4    2
Volvo 142E          21.4   4 121.0 109 4.11 2.780 18.60  1  1    4    2
Porsche 914-2       26.0   4 120.3  91 4.43 2.140 16.70  0  1    5    2
Toyota Corona       21.5   4 120.1  97 3.70 2.465 20.01  1  0    3    1
Datsun 710          22.8   4 108.0  93 3.85 2.320 18.61  1  1    4    1
Lotus Europa        30.4   4  95.1 113 3.77 1.513 16.90  1  1    5    2
Fiat X1-9           27.3   4  79.0  66 4.08 1.935 18.90  1  1    4    1
Fiat 128            32.4   4  78.7  66 4.08 2.200 19.47  1  1    4    1
Honda Civic         30.4   4  75.7  52 4.93 1.615 18.52  1  1    4    2
Toyota Corolla      33.9   4  71.1  65 4.22 1.835 19.90  1  1    4    1
> 
> # grouped arrange ignores groups
> by_cyl <- mtcars %>% group_by(cyl)
> by_cyl %>% arrange(desc(wt))
# A tibble: 32 × 11
# Groups:   cyl [3]
     mpg   cyl  disp    hp  drat    wt  qsec    vs    am  gear  carb
   <dbl> <dbl> <dbl> <dbl> <dbl> <dbl> <dbl> <dbl> <dbl> <dbl> <dbl>
 1  10.4     8  460    215  3     5.42  17.8     0     0     3     4
 2  14.7     8  440    230  3.23  5.34  17.4     0     0     3     4
 3  10.4     8  472    205  2.93  5.25  18.0     0     0     3     4
 4  16.4     8  276.   180  3.07  4.07  17.4     0     0     3     3
 5  19.2     8  400    175  3.08  3.84  17.0     0     0     3     2
 6  13.3     8  350    245  3.73  3.84  15.4     0     0     3     4
 7  15.2     8  276.   180  3.07  3.78  18       0     0     3     3
 8  17.3     8  276.   180  3.07  3.73  17.6     0     0     3     3
 9  14.3     8  360    245  3.21  3.57  15.8     0     0     3     4
10  15       8  301    335  3.54  3.57  14.6     0     1     5     8
# ℹ 22 more rows
> # Unless you specifically ask:
> by_cyl %>% arrange(desc(wt), .by_group = TRUE)
# A tibble: 32 × 11
# Groups:   cyl [3]
     mpg   cyl  disp    hp  drat    wt  qsec    vs    am  gear  carb
   <dbl> <dbl> <dbl> <dbl> <dbl> <dbl> <dbl> <dbl> <dbl> <dbl> <dbl>
 1  24.4     4 147.     62  3.69  3.19  20       1     0     4     2
 2  22.8     4 141.     95  3.92  3.15  22.9     1     0     4     2
 3  21.4     4 121     109  4.11  2.78  18.6     1     1     4     2
 4  21.5     4 120.     97  3.7   2.46  20.0     1     0     3     1
 5  22.8     4 108      93  3.85  2.32  18.6     1     1     4     1
 6  32.4     4  78.7    66  4.08  2.2   19.5     1     1     4     1
 7  26       4 120.     91  4.43  2.14  16.7     0     1     5     2
 8  27.3     4  79      66  4.08  1.94  18.9     1     1     4     1
 9  33.9     4  71.1    65  4.22  1.84  19.9     1     1     4     1
10  30.4     4  75.7    52  4.93  1.62  18.5     1     1     4     2
# ℹ 22 more rows
…
> ### * arrange_all
> 
> flush(stderr()); flush(stdout())
> 
> base::assign(".ptime", proc.time(), pos = "CheckExEnv")
> ### Name: arrange_all
> ### Title: Arrange rows by a selection of variables
> ### Aliases: arrange_all arrange_at arrange_if
> ### Keywords: internal
> 
> ### ** Examples
> 
> df <- as_tibble(mtcars)
> arrange_all(df)
# A tibble: 32 × 11
     mpg   cyl  disp    hp  drat    wt  qsec    vs    am  gear  carb
   <dbl> <dbl> <dbl> <dbl> <dbl> <dbl> <dbl> <dbl> <dbl> <dbl> <dbl>
 1  10.4     8  460    215  3     5.42  17.8     0     0     3     4
 2  10.4     8  472    205  2.93  5.25  18.0     0     0     3     4
 3  13.3     8  350    245  3.73  3.84  15.4     0     0     3     4
 4  14.3     8  360    245  3.21  3.57  15.8     0     0     3     4
 5  14.7     8  440    230  3.23  5.34  17.4     0     0     3     4
 6  15       8  301    335  3.54  3.57  14.6     0     1     5     8
 7  15.2     8  276.   180  3.07  3.78  18       0     0     3     3
 8  15.2     8  304    150  3.15  3.44  17.3     0     0     3     2
 9  15.5     8  318    150  2.76  3.52  16.9     0     0     3     2
10  15.8     8  351    264  4.22  3.17  14.5     0     1     5     4
# ℹ 22 more rows
> # ->
> arrange(df, pick(everything()))
# A tibble: 32 × 11
     mpg   cyl  disp    hp  drat    wt  qsec    vs    am  gear  carb
   <dbl> <dbl> <dbl> <dbl> <dbl> <dbl> <dbl> <dbl> <dbl> <dbl> <dbl>
 1  10.4     8  460    215  3     5.42  17.8     0     0     3     4
 2  10.4     8  472    205  2.93  5.25  18.0     0     0     3     4
 3  13.3     8  350    245  3.73  3.84  15.4     0     0     3     4
 4  14.3     8  360    245  3.21  3.57  15.8     0     0     3     4
 5  14.7     8  440    230  3.23  5.34  17.4     0     0     3     4
 6  15       8  301    335  3.54  3.57  14.6     0     1     5     8
 7  15.2     8  276.   180  3.07  3.78  18       0     0     3     3
 8  15.2     8  304    150  3.15  3.44  17.3     0     0     3     2
 9  15.5     8  318    150  2.76  3.52  16.9     0     0     3     2
10  15.8     8  351    264  4.22  3.17  14.5     0     1     5     4
# ℹ 22 more rows
> 
> arrange_all(df, desc)
# A tibble: 32 × 11
     mpg   cyl  disp    hp  drat    wt  qsec    vs    am  gear  carb
   <dbl> <dbl> <dbl> <dbl> <dbl> <dbl> <dbl> <dbl> <dbl> <dbl> <dbl>
 1  33.9     4  71.1    65  4.22  1.84  19.9     1     1     4     1
 2  32.4     4  78.7    66  4.08  2.2   19.5     1     1     4     1
 3  30.4     4  95.1   113  3.77  1.51  16.9     1     1     5     2
 4  30.4     4  75.7    52  4.93  1.62  18.5     1     1     4     2
 5  27.3     4  79      66  4.08  1.94  18.9     1     1     4     1
 6  26       4 120.     91  4.43  2.14  16.7     0     1     5     2
 7  24.4     4 147.     62  3.69  3.19  20       1     0     4     2
 8  22.8     4 141.     95  3.92  3.15  22.9     1     0     4     2
 9  22.8     4 108      93  3.85  2.32  18.6     1     1     4     1
10  21.5     4 120.     97  3.7   2.46  20.0     1     0     3     1
# ℹ 22 more rows
> # ->
> arrange(df, across(everything(), desc))
# A tibble: 32 × 11
     mpg   cyl  disp    hp  drat    wt  qsec    vs    am  gear  carb
   <dbl> <dbl> <dbl> <dbl> <dbl> <dbl> <dbl> <dbl> <dbl> <dbl> <dbl>
 1  33.9     4  71.1    65  4.22  1.84  19.9     1     1     4     1
 2  32.4     4  78.7    66  4.08  2.2   19.5     1     1     4     1
 3  30.4     4  95.1   113  3.77  1.51  16.9     1     1     5     2
 4  30.4     4  75.7    52  4.93  1.62  18.5     1     1     4     2
 5  27.3     4  79      66  4.08  1.94  18.9     1     1     4     1
 6  26       4 120.     91  4.43  2.14  16.7     0     1     5     2
 7  24.4     4 147.     62  3.69  3.19  20       1     0     4     2
 8  22.8     4 141.     95  3.92  3.15  22.9     1     0     4     2
 9  22.8     4 108      93  3.85  2.32  18.6     1     1     4     1
10  21.5     4 120.     97  3.7   2.46  20.0     1     0     3     1
# ℹ 22 more rows
…
> starwars %>%
+   mutate(
+     # Replace missings, but leave everything else alone
+     hair_color = case_match(hair_color, NA ~ "unknown", .default = hair_color),
+     # Replace some, but not all, of the species
+     species = case_match(
+       species,
+       "Human" ~ "Humanoid",
+       "Droid" ~ "Robot",
+       c("Wookiee", "Ewok") ~ "Hairy",
+       .default = species
+     ),
+     .keep = "used"
+   )
# A tibble: 87 × 2
   hair_color    species 
   <chr>         <chr>   
 1 blond         Humanoid
 2 unknown       Robot   
 3 unknown       Robot   
 4 none          Humanoid
 5 brown         Humanoid
 6 brown, grey   Humanoid
 7 brown         Humanoid
 8 unknown       Robot   
 9 black         Humanoid
10 auburn, white Humanoid
# ℹ 77 more rows
…
[8]  1.2247449  1.4142136
> 
> # `case_when()` is particularly useful inside `mutate()` when you want to
> # create a new variable that relies on a complex combination of existing
> # variables
> starwars %>%
+   select(name:mass, gender, species) %>%
+   mutate(
+     type = case_when(
+       height > 200 | mass > 200 ~ "large",
+       species == "Droid" ~ "robot",
+       .default = "other"
+     )
+   )
# A tibble: 87 × 6
   name               height  mass gender    species type 
   <chr>               <int> <dbl> <chr>     <chr>   <chr>
 1 Luke Skywalker        172    77 masculine Human   other
 2 C-3PO                 167    75 masculine Droid   robot
 3 R2-D2                  96    32 masculine Droid   robot
 4 Darth Vader           202   136 masculine Human   large
 5 Leia Organa           150    49 feminine  Human   other
 6 Owen Lars             178   120 masculine Human   other
 7 Beru Whitesun Lars    165    75 feminine  Human   other
 8 R5-D4                  97    32 masculine Droid   robot
 9 Biggs Darklighter     183    84 masculine Human   other
10 Obi-Wan Kenobi        182    77 masculine Human   other
# ℹ 77 more rows
…
> ### * count
> 
> flush(stderr()); flush(stdout())
> 
> base::assign(".ptime", proc.time(), pos = "CheckExEnv")
> ### Name: count
> ### Title: Count the observations in each group
> ### Aliases: count count.data.frame tally add_count add_tally
> 
> ### ** Examples
> 
> # count() is a convenient way to get a sense of the distribution of
> # values in a dataset
> starwars %>% count(species)
# A tibble: 38 × 2
   species       n
   <chr>     <int>
 1 Aleena        1
 2 Besalisk      1
 3 Cerean        1
 4 Chagrian      1
 5 Clawdite      1
 6 Droid         6
 7 Dug           1
 8 Ewok          1
 9 Geonosian     1
10 Gungan        3
# ℹ 28 more rows
> starwars %>% count(species, sort = TRUE)
# A tibble: 38 × 2
   species      n
   <chr>    <int>
 1 Human       35
 2 Droid        6
 3 <NA>         4
 4 Gungan       3
 5 Kaminoan     2
 6 Mirialan     2
 7 Twi'lek      2
 8 Wookiee      2
 9 Zabrak       2
10 Aleena       1
# ℹ 28 more rows
…
  type      n
  <fct> <int>
1 a         3
2 b         0
3 c         1
4 <NA>      1
> 
> # tally() is a lower-level function that assumes you've done the grouping
> starwars %>% tally()
# A tibble: 1 × 1
      n
  <int>
1    87
> starwars %>% group_by(species) %>% tally()
# A tibble: 38 × 2
   species       n
   <chr>     <int>
 1 Aleena        1
 2 Besalisk      1
 3 Cerean        1
 4 Chagrian      1
 5 Clawdite      1
 6 Droid         6
 7 Dug           1
 8 Ewok          1
 9 Geonosian     1
10 Gungan        3
# ℹ 28 more rows
…
